%YAML 1.1
%TAG !u! tag:unity3d.com,2011:
--- !u!74 &7400000
AnimationClip:
  m_ObjectHideFlags: 0
  m_CorrespondingSourceObject: {fileID: 0}
  m_PrefabInstance: {fileID: 0}
  m_PrefabAsset: {fileID: 0}
  m_Name: New Animation
  serializedVersion: 6
  m_Legacy: 0
  m_Compressed: 0
  m_UseHighQualityCurve: 1
  m_RotationCurves: []
  m_CompressedRotationCurves: []
  m_EulerCurves: []
  m_PositionCurves: []
  m_ScaleCurves: []
  m_FloatCurves: []
  m_PPtrCurves:
  - curve:
    - time: 0
      value: {fileID: 21300000, guid: e6e63f7093589d643ba70c5f775957cb, type: 3}
    - time: 0.083333336
      value: {fileID: 21300000, guid: 1449963cd363a2644bc42c60407849cc, type: 3}
    - time: 0.16666667
      value: {fileID: 21300000, guid: d5a4d7fa19a91be4ab4d818ca3e33d40, type: 3}
    - time: 0.25
      value: {fileID: 21300000, guid: 37dce50032ba3224298a25ee39d6a869, type: 3}
    - time: 0.33333334
      value: {fileID: 21300000, guid: ffdad125c2533f24c99adc4bc2dc5816, type: 3}
    - time: 0.41666666
      value: {fileID: 21300000, guid: 885735b8fd9318a47ad43ea4cd6bf3ad, type: 3}
    - time: 0.5
      value: {fileID: 21300000, guid: 6634df1119e0c9246bc37c0a300e32a3, type: 3}
    - time: 0.5833333
      value: {fileID: 21300000, guid: 256ecf32be62a9d4d8d33e703651815d, type: 3}
    - time: 0.6666667
      value: {fileID: 21300000, guid: e6735c373220b634aa4f23db9b1a70d9, type: 3}
    - time: 0.75
      value: {fileID: 21300000, guid: 233a97d1fe976924a8996242c87feb9b, type: 3}
    attribute: m_Sprite
    path: 
    classID: 212
    script: {fileID: 0}
  m_SampleRate: 12
  m_WrapMode: 0
  m_Bounds:
    m_Center: {x: 0, y: 0, z: 0}
    m_Extent: {x: 0, y: 0, z: 0}
  m_ClipBindingConstant:
    genericBindings:
    - serializedVersion: 2
      path: 0
      attribute: 0
      script: {fileID: 0}
      typeID: 212
      customType: 23
      isPPtrCurve: 1
    pptrCurveMapping:
    - {fileID: 21300000, guid: e6e63f7093589d643ba70c5f775957cb, type: 3}
    - {fileID: 21300000, guid: 1449963cd363a2644bc42c60407849cc, type: 3}
    - {fileID: 21300000, guid: d5a4d7fa19a91be4ab4d818ca3e33d40, type: 3}
    - {fileID: 21300000, guid: 37dce50032ba3224298a25ee39d6a869, type: 3}
    - {fileID: 21300000, guid: ffdad125c2533f24c99adc4bc2dc5816, type: 3}
    - {fileID: 21300000, guid: 885735b8fd9318a47ad43ea4cd6bf3ad, type: 3}
    - {fileID: 21300000, guid: 6634df1119e0c9246bc37c0a300e32a3, type: 3}
    - {fileID: 21300000, guid: 256ecf32be62a9d4d8d33e703651815d, type: 3}
    - {fileID: 21300000, guid: e6735c373220b634aa4f23db9b1a70d9, type: 3}
    - {fileID: 21300000, guid: 233a97d1fe976924a8996242c87feb9b, type: 3}
  m_AnimationClipSettings:
    serializedVersion: 2
    m_AdditiveReferencePoseClip: {fileID: 0}
    m_AdditiveReferencePoseTime: 0
    m_StartTime: 0
    m_StopTime: 0.8333333
    m_OrientationOffsetY: 0
    m_Level: 0
    m_CycleOffset: 0
    m_HasAdditiveReferencePose: 0
    m_LoopTime: 1
    m_LoopBlend: 0
    m_LoopBlendOrientation: 0
    m_LoopBlendPositionY: 0
    m_LoopBlendPositionXZ: 0
    m_KeepOriginalOrientation: 0
    m_KeepOriginalPositionY: 1
    m_KeepOriginalPositionXZ: 0
    m_HeightFromFeet: 0
    m_Mirror: 0
  m_EditorCurves: []
  m_EulerEditorCurves: []
  m_HasGenericRootTransform: 0
  m_HasMotionFloatCurves: 0
  m_Events: []
