%YAML 1.1
%TAG !u! tag:unity3d.com,2011:
--- !u!74 &7400000
AnimationClip:
  m_ObjectHideFlags: 0
  m_CorrespondingSourceObject: {fileID: 0}
  m_PrefabInstance: {fileID: 0}
  m_PrefabAsset: {fileID: 0}
  m_Name: Run
  serializedVersion: 6
  m_Legacy: 0
  m_Compressed: 0
  m_UseHighQualityCurve: 1
  m_RotationCurves: []
  m_CompressedRotationCurves: []
  m_EulerCurves: []
  m_PositionCurves: []
  m_ScaleCurves: []
  m_FloatCurves: []
  m_PPtrCurves:
  - curve:
    - time: 0
      value: {fileID: -9141584264292346788, guid: fe450ad5de781524bb8f8b9b9a8733de, type: 3}
    - time: 0.083333336
      value: {fileID: 1906141486569585762, guid: fe450ad5de781524bb8f8b9b9a8733de, type: 3}
    - time: 0.16666667
      value: {fileID: -2825554377517898184, guid: fe450ad5de781524bb8f8b9b9a8733de, type: 3}
    - time: 0.25
      value: {fileID: 3513174611664110816, guid: fe450ad5de781524bb8f8b9b9a8733de, type: 3}
    - time: 0.33333334
      value: {fileID: -6861330071429621045, guid: fe450ad5de781524bb8f8b9b9a8733de, type: 3}
    - time: 0.41666666
      value: {fileID: 7307105962815107817, guid: fe450ad5de781524bb8f8b9b9a8733de, type: 3}
    - time: 0.5
      value: {fileID: 2286744650074217765, guid: fe450ad5de781524bb8f8b9b9a8733de, type: 3}
    - time: 0.5833333
      value: {fileID: 6041670677516728545, guid: fe450ad5de781524bb8f8b9b9a8733de, type: 3}
    - time: 0.6666667
      value: {fileID: -8536184391526444769, guid: fe450ad5de781524bb8f8b9b9a8733de, type: 3}
    - time: 0.75
      value: {fileID: 1073083007586599078, guid: fe450ad5de781524bb8f8b9b9a8733de, type: 3}
    - time: 0.8333333
      value: {fileID: 2324439045078458508, guid: fe450ad5de781524bb8f8b9b9a8733de, type: 3}
    attribute: m_Sprite
    path: 
    classID: 212
    script: {fileID: 0}
  m_SampleRate: 12
  m_WrapMode: 0
  m_Bounds:
    m_Center: {x: 0, y: 0, z: 0}
    m_Extent: {x: 0, y: 0, z: 0}
  m_ClipBindingConstant:
    genericBindings:
    - serializedVersion: 2
      path: 0
      attribute: 0
      script: {fileID: 0}
      typeID: 212
      customType: 23
      isPPtrCurve: 1
    pptrCurveMapping:
    - {fileID: -9141584264292346788, guid: fe450ad5de781524bb8f8b9b9a8733de, type: 3}
    - {fileID: 1906141486569585762, guid: fe450ad5de781524bb8f8b9b9a8733de, type: 3}
    - {fileID: -2825554377517898184, guid: fe450ad5de781524bb8f8b9b9a8733de, type: 3}
    - {fileID: 3513174611664110816, guid: fe450ad5de781524bb8f8b9b9a8733de, type: 3}
    - {fileID: -6861330071429621045, guid: fe450ad5de781524bb8f8b9b9a8733de, type: 3}
    - {fileID: 7307105962815107817, guid: fe450ad5de781524bb8f8b9b9a8733de, type: 3}
    - {fileID: 2286744650074217765, guid: fe450ad5de781524bb8f8b9b9a8733de, type: 3}
    - {fileID: 6041670677516728545, guid: fe450ad5de781524bb8f8b9b9a8733de, type: 3}
    - {fileID: -8536184391526444769, guid: fe450ad5de781524bb8f8b9b9a8733de, type: 3}
    - {fileID: 1073083007586599078, guid: fe450ad5de781524bb8f8b9b9a8733de, type: 3}
    - {fileID: 2324439045078458508, guid: fe450ad5de781524bb8f8b9b9a8733de, type: 3}
  m_AnimationClipSettings:
    serializedVersion: 2
    m_AdditiveReferencePoseClip: {fileID: 0}
    m_AdditiveReferencePoseTime: 0
    m_StartTime: 0
    m_StopTime: 0.9166666
    m_OrientationOffsetY: 0
    m_Level: 0
    m_CycleOffset: 0
    m_HasAdditiveReferencePose: 0
    m_LoopTime: 1
    m_LoopBlend: 0
    m_LoopBlendOrientation: 0
    m_LoopBlendPositionY: 0
    m_LoopBlendPositionXZ: 0
    m_KeepOriginalOrientation: 0
    m_KeepOriginalPositionY: 1
    m_KeepOriginalPositionXZ: 0
    m_HeightFromFeet: 0
    m_Mirror: 0
  m_EditorCurves: []
  m_EulerEditorCurves: []
  m_HasGenericRootTransform: 0
  m_HasMotionFloatCurves: 0
  m_Events: []
